{
	"process_id" : 625,
	"version" : "2021.3.0f1",
	"app_path" : "/Applications/Unity/Hub/Editor/2021.3.0f1/Unity.app",
	"app_contents_path" : "/Applications/Unity/Hub/Editor/2021.3.0f1/Unity.app/Contents"
}